{"patientDetails": ["Ada wait Abdallah"],
  "phoneEmail":["123333"],
  "Id":["0303708757"],
  "gender": ["Female"],
  "DOB":["26 Oct 1966 (49y)"],
  "visitedDate":["Unavailable"],
  "searchString":" ada wait abdallah"
}