{
  "searchResult":"No results found.",
  "searchString1":"%%%",
  "searchString2":"%&!",
  "searchString3":"!@#",
  "searchString4":"@#$",
  "searchString5":"ahsujb",
  "strFemale":"Female",
  "strMale":"Male",
  "strUndifferentiated":"Undifferentiated",
  "columns": [
    "patientDetails",
    "phoneEmail",
    "visitedDate",
    "actionsOverview",
    "actionsRadiology",
    "actionsLabs",
    "Id",
    "DOB",
    "gender"
  ],
  "gender": [
      "Female",
      "Female",
      "Unavailable",
      "Unavailable",
      "Male",
      "Male",
      "Male",
      "Male",
      "Male",
      "Male"
  ]
}