{
    "IdText":"ID",
    "BornText":"Born",
    "fullNameSearchString":"mahendra singh dhoni",

    "firstNameSearchData" :
    [
        "Mahendra Singh Dhoni",
        "MPHRX640752",
        "01 Sep 1954 (62y)",
        "Female",
        "6"

    ],
    "firstNameSearchReportType":[
        "Radiology",
        "Radiology",
        "Radiology",
        "Lab",
        "Radiology",
        "Radiology"
    ],

    "firstNameSearchReportStatus":
    [
        "Unavailable",
        "Unavailable",
        "Unavailable",
        "Final",
        "Unavailable",
        "Unavailable"
    ],

    "firstNameSearchReportDescription":[
        "head^HS Brain",
        "head^HS Brain",
        "ABDOMEN EOVIST",
        "COMPMETA",
        "DAILY QA",
        "PET-CT SKULL TO THIGH"
    ],

    "firstNameSearchReportDate":
    [
        "08 Mar 2016 00:18",
        "08 Mar 2016 00:18",
        "18 Dec 2015 19:28",
        "23 Aug 2015 19:00",
        "20 Jul 2015 17:39",
        "25 Feb 2015 02:27"

    ],
    "ReportIconName":[false, false, false, true,false,false],
    "ImageIconName":[true, true, true, false, true, true]
}