{
    "IdText":"ID",
    "BornText":"Born",
    "ReportLocation":["BCM","BCM"],
    "firstPageCount":10,
    "genderNameFemale":[
        "Patricia Trachtenberg",
        "Mahendra Singh Dhoni",
        "Mahendra Singh Dhoni",
        "SAMIRA MOHAMMAD ABDULLAH",
        "Mahendra Singh Dhoni",
        "SAMIRA MOHAMMAD ABDULLAH",
        "SAMIRA MOHAMMAD ABDULLAH",
        "RABYA ABBASI",
        "Mahendra Singh Dhoni",
        "Mahendra Singh Dhoni"
    ],
    "genderIdFemale":[
        "0303241675",
        "MPHRX640752",
        "MPHRX640752",
        "0303659004",
        "MPHRX640752",
        "0303659004",
        "0303659004",
        "0303678661",
        "MPHRX640752",
        "MPHRX640752"
    ],
    "genderDobFemale":[
        "27 Nov 1975 (40y)",
        "01 Sep 1954 (62y)",
        "01 Sep 1954 (62y)",
        "25 Apr 1949 (67y)",
        "01 Sep 1954 (62y)",
        "25 Apr 1949 (67y)",
        "25 Apr 1949 (67y)",
        "12 Jun 1973 (43y)",
        "01 Sep 1954 (62y)",
        "01 Sep 1954 (62y)"
    ],
    "genderReportTypeFemale":
    [
        "Radiology",
        "Radiology",
        "Radiology",
        "Radiology",
        "Radiology",
        "Radiology",
        "Radiology",
        "Radiology",
        "Lab",
        "Radiology"
    ],

    "genderReportStatusFemale":[
        "Final",
        "Unavailable",
        "Unavailable",
        "Unavailable",
        "Unavailable",
        "Unavailable",
        "Final",
        "Unavailable",
        "Final",
        "Unavailable"
    ],

    "genderReportDescriptionFemale":[
        "Unavailable",
        "head^HS Brain",
        "head^HS Brain",
        "MAMMO 3D DIAGNOSTIC BILAT",
        "ABDOMEN EOVIST",
        "Unavailable",
        "BAY FOOT 3V LEFT",
        "US TRANSVAGINAL/PELVIS",
        "COMPMETA",
        "DAILY QA"
    ],
    "genderReportDateFemale":[
        "01 Apr 2016 02:12",
        "08 Mar 2016 00:18",
        "08 Mar 2016 00:18",
        "11 Feb 2016 20:47",
        "18 Dec 2015 19:28",
        "09 Dec 2015 01:47",
        "02 Dec 2015 21:23",
        "14 Nov 2015 04:43",
        "23 Aug 2015 19:00",
        "20 Jul 2015 17:39"
    ],
    "genderReportIconFemale":[
        true,
        false,
        false,
        false,
        false,
        false,
        true,
        false,
        true,
        false
    ],
    "genderImageIconFemale":[
        false,
        true,
        true,
        true,
        true,
        true,
        true,
        true,
        false,
        true
    ],
    "genderCountFemale":"26"
}